{
    "spider": "https://fs-im-kefu.7moor-fs1.com/ly/4d2c3f00-7d4c-11e5-af15-41bf63ae4ea0/1712494041762/fan.txt;md5;013794cda7f4898b65b8a7f7382cc5a1",
    "sites": [
        //业余者
        {
            "key": "腾讯1",
            "name": "🎈 少儿频道1",
            "type": 3,
            "api": "http://yydf.540734621.xyz/yydf/yydf/bd/yydf/js/drpy2.min.js",
            "ext": "http://yydf.540734621.xyz/yydf/yydf/bd/yydf/js/腾讯.js"
        },
        {
            "key": "芒果1",
            "name": "🎈 少儿频道2",
            "type": 3,
            "api": "http://yydf.540734621.xyz/yydf/yydf/bd/yydf/js/drpy2.min.js",
            "ext": "http://yydf.540734621.xyz/yydf/yydf/bd/yydf/js/忙果.js"
        },
        {
            "key": "奇艺1",
            "name": "🎈 少儿频道3",
            "type": 3,
            "api": "http://yydf.540734621.xyz/yydf/yydf/bd/yydf/js/drpy2.min.js",
            "ext": "http://yydf.540734621.xyz/yydf/yydf/bd/yydf/js/异兽.js"
        },
        {
            "key": "优酷1",
            "name": "🎈 少儿频道4",
            "type": 3,
            "api": "http://yydf.540734621.xyz/yydf/yydf/bd/yydf/js/drpy2.min.js",
            "ext": "http://yydf.540734621.xyz/yydf/yydf/bd/yydf/js/优酷.js"
        },
        {
            "key": "csp_XYQHiker_兔小贝",
            "name": "🎈 兔小贝1",
            "type": 3,
            "jar": "http://yydf.540734621.xyz/yydf/yydf/bd/yydf/txt/duanjuw.txt;md5;5dbe95399010cd30706b01aa5624dbe0",
            "api": "csp_XYQHiker",
            "searchable": 1,
            "quickSearch": 1,
            "filterable": 1,
            "ext": "http://yydf.540734621.xyz/yydf/yydf/bd/yydf/json/兔小贝.json"
        },
        {
            "key": "csp_XYQHiker_兔小贝2",
            "name": "🎈 兔小贝2",
            "type": 3,
            "jar": "http://yydf.540734621.xyz/yydf/yydf/bd/yydf/txt/duanjuw.txt;md5;5dbe95399010cd30706b01aa5624dbe0",
            "api": "csp_XYQHiker",
            "searchable": 1,
            "quickSearch": 1,
            "filterable": 1,
            "ext": "http://yydf.540734621.xyz/yydf/yydf/bd/yydf/json/兔小贝2.json"
        },
        
        {
            "key": "童趣",
            "name": "🎈 童趣",
            "type": 3,
            "api": "http://yydf.540734621.xyz/yydf/yydf/bd/yydf/js/drpy2.min.js",
            "ext": "http://yydf.540734621.xyz/yydf/yydf/bd/yydf/js/童趣.js"
        },
{
            "key" : "js_亲子",
            "name" : "👨‍👨‍👧亲子教育",
            "type" : 3,
            "api" : "https://notabug.org/ygfxz/6/raw/main/js/lib/drpy2.min.js",
            "ext" : "https://notabug.org/ygfxz/6/raw/main/js/tongqu.js"
        },
{
            "key": "ubestkid_open",
            "name": "🐅贝乐虎cat",
            "type": 3,
            "api": "http://yydf.540734621.xyz/yydf/yydf/bd/watson/cat/ubestkid_open.js"
        },

{"key":"dr_兔小贝","name":"📚儿童启蒙","type":3,"api":"https://notabug.org/ygfxz/6/raw/main/js/lib/drpy2.min.js","ext":"https://notabug.org/ygfxz/6/raw/main/js/js/兔小贝.js"},





//神仙

 {
            "key": "py_qie",
            "name": "体育 | 企鹅体育",
            "type": 3,
            "api": "py_qie",
            "searchable": 0,
            "quickSearch": 0,
            "filterable": 1,
            "ext": "http://www.liuyunw.com:88/json/qty.py"
        },
        {
      "key": "csp_XPath_企鹅体育",
      "name": "⚽️体育",
      "type": 3,
      "api": "csp_XPath",
      "style": {
        "type": "list"
      },
      "searchable": 0,
      "quickSearch": 0,
      "changeable": 0,
      "jar": "https://agit.ai/Yoursmile7/TVBox/raw/branch/master/Yoursmile.jar",
      "ext": "https://agit.ai/fantaiying/fty/raw/branch/master/ext/企鹅直播.json"
    },
    {
         "key": "csp_XPath_鹅直播",
          "name": "⚽️企鹅1", 
          "type": 3, 
          "api": "csp_XPath",
           "searchable": 0, 
           "quickSearch": 0, 
           "filterable": 0, 
           "ext": "https://jihulab.com/yydfys/yydf/-/raw/main/yydf/lib/qie.json"
            },
         {
            "key": "310看球",
            "name": "体育 | 310看球",
            "type": 3,
            "api": "http://www.liuyunw.com:88/js/drpy.min.js",
            "ext": "http://www.liuyunw.com:88/js/310直播.js"
        },
        {
            "key": "JRKAN直播",
            "name": "体育 | JRKAN直播",
            "type": 3,
            "api": "http://www.liuyunw.com:88/js/drpy.min.js",
            "ext": "hhttp://www.liuyunw.com:88/js/JRKAN直播.js"
        },
        {
             "key": "网络直播",
             "name": "直播 | 综合直播",
             "type": 3,
             "api": "http://www.liuyunw.com:88/js/drpy.min.js",
            "ext": "http://www.liuyunw.com:88/js/JustLive.js"
        },
                 {
            "key": "AnFuns",
            "name": "动漫 | AnFuns",
            "type": 3,
            "api": "http://www.liuyunw.com:88/js/drpy.min.js",
            "ext": "http://www.liuyunw.com:88/js/AnFuns.js"
        },
      
        {
            "key": "58动漫",
            "name": "动漫 | 58动漫",
            "type": 3,
            "api": "http://www.liuyunw.com:88/js/drpy.min.js",
            "ext": "http://www.liuyunw.com:88/js/58动漫.js"
        },
        
        {
            "key": "路漫漫",
            "name": "动漫 | 路漫漫",
            "type": 3,
            "api": "http://www.liuyunw.com:88/js/drpy.min.js",
            "ext": "http://www.liuyunw.com:88/js/路漫漫.js"
        },
      
        {
            "key": "爱弹幕",
            "name": "动漫 | 爱弹幕",
            "type": 3,
            "api": "http://www.liuyunw.com:88/js/drpy.min.js",
            "ext": "http://www.liuyunw.com:88/js/爱弹幕.js"
        },
            {
            "key": "曲奇动漫",
            "name": "动漫 | 曲奇动漫",
            "type": 3,
            "api": "http://www.liuyunw.com:88/js/drpy.min.js",
            "ext": "http://www.liuyunw.com:88/js/曲奇动漫.js"
        },
        
       
        {
            "key": "奇米动漫",
            "name": "动漫 | 奇米动漫",
            "type": 3,
            "api": "http://www.liuyunw.com:88/js/drpy.min.js",
            "ext": "http://www.liuyunw.com:88/js/奇米动漫.js"
        },
        {
            "key": "怡萱动漫",
            "name": "动漫 | 怡萱动漫",
            "type": 3,
            "api": "http://www.liuyunw.com:88/js/drpy.min.js",
            "ext": "http://www.liuyunw.com:88/js/怡萱动漫.js"
        },
    
        {
            "key": "兔小贝",
            "name": "启蒙|兔小贝",
            "type": 3,
            "api": "http://www.liuyunw.com:88/js/drpy.min.js",
            "ext": "http://www.liuyunw.com:88/js/兔小贝.js",
            "searchable": 0,
            "quickSearch": 0,
            "filterable": 0
        },
                   {
      "key": "学外语",
      "name": "📚学外语",
      "type": 3,
      "api": "csp_Bili",
      "searchable": 1,
      "quickSearch": 1,
      "filterable": 1,
      "ext": "http://svip.weixine.net:88/uploads/itvbox/sub/waiyu.json"
    },
   {
      "key": "相声小品",
      "name": "🏮相声小品",
      "type": 3,
      "api": "csp_Bili",
      "searchable": 1,
      "quickSearch": 1,
      "filterable": 1,
      "ext": "http://svip.weixine.net:88/uploads/itvbox/sub/Blixs.json"
    },
 {
      "key": "戏 曲",
      "name": "🎈国粹戏曲",
      "type": 3,
      "api": "csp_Bili",
      "searchable": 1,
      "quickSearch": 1,
      "filterable": 1,
      "ext": "http://svip.weixine.net:88/uploads/itvbox/sub/Blixq.json"
    },
    {
      "key": "演唱会",
      "name": "🎸演唱会",
      "type": 3,
      "api": "csp_Bili",
      "searchable": 1,
      "quickSearch": 1,
      "filterable": 1,
      "ext": "http://svip.weixine.net:88/uploads/itvbox/sub/yanchanghui.txt"
    },






















       //讴歌

        //py
        {
            "key": "py_cctv",
            "name": "🇨🇳央视片库┃PY",
            "type": 3,
            "api": "py_cctv",
            "searchable": 0,
            "quickSearch": 0,
            "filterable": 0,
            "ext": "http://o.nxog.top/m/py/py_cctv.json"
        },
        {
            "key": "py_m1905",
            "name": "🇨🇳电影┃PY",
            "type": 3,
            "api": "py_cctv",
            "searchable": 0,
            "quickSearch": 0,
            "filterable": 0,
            "ext": "http://o.nxog.top/m/py/m1905.json"
        },
      
        {
            "key": "Pandalivetv",
            "name": "💯韩女直播",
            "type": 3,
            "api": "csp_WexPandalivetv",
            "searchable": 0,
            "changeable": 0,
            "jar": "http://yydf.540734621.xyz/yydf/yydf/bd/yydf/txt/wex.txt;md5;1a93958bfdeb969dbdfd3478e7f8b61e"
        },
 //短剧
         {
      "key": "种子短剧",
      "name": "🍒┃短剧┃种子",
      "type": 3,
      "api": "http://dt.xn--yety82d.love/js/lib/drpy2.min.js",
      "ext": "http://dt.xn--yety82d.love/js/种子短剧.js",
      "playerType": 2
    },
    {
      "key": "短剧",
      "name": "🌈上头丨整合↑",
      "type": 3,
      "api": "https://agit.ai/fantaiying/fty/raw/branch/master/ext/drpy2.min.js",
      "ext": "https://agit.ai/fantaiying/fty/raw/branch/master/ext/上头短剧.js",
      "searchable": 1,
      "quickSearch": 1,
      "changeable": 0
    },
    {
      "key": "sw",
      "name": "📲短剧↑",
      "type": 3,
      "api": "csp_Swdj",
        "jar": "https://www.soeasy.love/tvbox/custom_spider.jar;md5;6d7a105d86b5a92f9ddb90ad4964a8ea",
      "searchable": 1,
      "quickSearch": 0,
      "filterable": 1
    },
 
{"key":"csp_xBPQ_短剧侠","name":"📲剧侠↓","type":3,"api":"csp_XBPQ","searchable":1,"quickSearch":1,"filterable":1,"changeable":1,"ext":"http://175.24.189.226/box/tvbox/PG/XBPQ/%E7%9F%AD%E5%89%A7%E4%BE%A0.json","jar":"http://175.24.189.226/box/tvbox/PG/XBPQ1.jar;md5;56be033d13e13803dc999d881437d1f6","timeout":60},
	  {
            "key": "duanju1",
            "name": "📲短整|上头2",
            "type": 3,
            "api": "csp_AppYsV2",
            "searchable": 1,
            "quickSearch": 0,
            "filterable": 1,
            "ext": "http://106.52.241.21:83/api.php/app/"
        },
        {
            "key": "duanju2",
            "name": "📲短整|上头3",
            "type": 3,
            "api": "csp_AppYsV2",
            "searchable": 1,
            "quickSearch": 0,
            "filterable": 1,
            "ext": "http://122.228.84.103:6822/api.php/app/"
        },
            {
      "key": "freeok",
      "name": "🌟┃FROK↑",
      "type": 3,
      "api": "csp_XBPQ",
      "playerType": "2",
      "jar": "https://fs-im-kefu.7moor-fs1.com/29397395/4d2c3f00-7d4c-11e5-af15-41bf63ae4ea0/1704761840381/c (1).txt;md5;bb155c3f0133bbce4756ad52003f5968",
      "ext": {
        "分类url": "https://www.freeok.vip/vod-show/{cateId}-{area}-------{catePg}---{year}.html;;ar1",
        "分类": "FREE电影&FREE剧集&FREE动漫&FREE综艺&FREE短剧&FREE少儿",
        "分类值": "1&2&3&4&12&5",
        "副标题": "<div class=\"module-item-note\">&&</div>",
        "嗅探词": "m3u8#.m3u8#.mp4#freeok.mp4#/obj/",
        "线路数组": "data-dropdown-value=&&</div>[不包含:夸克]",
        "线路标题": "<span>&&</small>",
        "导演": "导演：&&</div>",
        "主演": "主演：&&</div>",
        "简介": "<p>&&</p>"
      }
    },
       {
      "key": "XBPQ_BaiPiao",
      "name": "🐿️|白白↑",
      "type": 3,
      "api": "csp_XBPQ",
      "jar": "https://fs-im-kefu.7moor-fs1.com/29397395/4d2c3f00-7d4c-11e5-af15-41bf63ae4ea0/1704761840381/c (1).txt;md5;bb155c3f0133bbce4756ad52003f5968",
      "ext": {
        "地区": "[替换:大陆>>中国大陆#香港>>中国香港#台湾>>中国台湾]",
        "分类": "电影$1#电视剧$2#动漫$3#爽文短剧$4",
        "分类url": "https://www.baipiaoys.com:9092/show/area/{area}/by/{by}/class/{class}/id/{cateId}/page/{catePg}/year/{year}.html"
      }
    },

        {
            "key": "duanju3",
            "name": "📲短3|上头4",
            "type": 3,
            "api": "csp_AppYsV2",
            "searchable": 1,
            "quickSearch": 0,
            "filterable": 1,
            "ext": "http://106.52.241.21:83/api.php/app/"
        },
 {
     "key":"横版影院",
  "name": "❤️短剧一", "type": 1, "api": "https://cj.lzcaiji.com/api.php/provide/vod/from/liangzi/?ac=list", "searchable": 1, "quickSearch": 1, "filterable": 1, "categories": [ "短剧" ] 
  }, 

{
      "key": "csp_短剧",
      "name": "🎧刷｜|短剧↓",
      "type": 3,
      "api": "csp_XBPQ",
      "searchable": 0,
      "quickSearch": 0,
      "filterable": 1,
      "jar": "https://raw.liucn.cc/box/libs/jar/HCCX.jar",
      "ext": "https://raw.liucn.cc/box/libs/hccx/短剧网.json"
    },
 
  {
      "key": "csp_XBPQ_aoaotv",
      "name": "🎦┃短剧┃嗷嗷",
      "type": 3,
      "api": "csp_XBPQ",
      "searchable": 1,
      "quickSearch": 1,
      "filterable": 1,
      "jar": "https://raw.liucn.cc/box/libs/jar/XBPQ.jar",
      "ext": {
        "分类url": "https://aoao.tv/vodshow/{cateId}--------{catePg}---.html",
        "分类": "短剧$20#电视剧$21#电影$22#动漫$23#综艺$24"
      }
    },
  


    {
      "key": "csp_短剧网香",
      "name": "🧡短剧五↓",
      "type": 3,
      "api": "csp_XYQHiker",
      "jar": "https://agit.ai/hu/hcr/raw/branch/master/lib/dj2.jar",
      "searchable": 1,
      "quickSearch": 1,
      "filterable": 1,
      "ext": {
        "规则名": "短剧网",
        "规则作者": "醉卧东风",
        "请求头参数": "User-Agent$MOBILE_UA#Referer$WebView",
        "网页编码格式": "UTF-8",
        "图片是否需要代理": "0",
        "是否开启获取首页数据": "1",
        "首页推荐链接": "https://www.duanju5.com",
        "首页列表数组规则": "body&&.module-items",
        "首页片单列表数组规则": ".module-item",
        "首页片单是否Jsoup写法": "1",
        "分类起始页码": "1",
        "分类链接": "https://www.duanju5.com/vodtype/{cateId}-{catePg}.html",
        "分类名称": "逆袭&甜宠&虐恋&穿越&重生",
        "分类名称替换词": "nixi&tianchong&nuelian&chuanyue&chuanyue&chongsheng",
        "分类截取模式": "1",
        "分类列表数组规则": "body&&.module-item",
        "分类片单是否Jsoup写法": "1",
        "分类片单标题": "a&&title",
        "分类片单链接": "a&&href",
        "分类片单图片": ".lazyloaded||.lazyload&&data-src||data-original",
        "分类片单副标题": ".module-item-note||.module-item-text&&Text",
        "分类片单链接加前缀": "https://www.duanju5.com",
        "分类片单链接加后缀": "",
        "搜索请求头参数": "User-Agent$MOBILE_UA",
        "搜索链接": "https://www.duanju5.com/vodsearch/{wd}----------{SearchPg}---.html",
        "POST请求数据": "",
        "搜索截取模式": "1",
        "搜索列表数组规则": "body&&.module-search-item",
        "搜索片单是否Jsoup写法": "1",
        "搜索片单图片": ".lazyload&&data-src",
        "搜索片单标题": "h3&&Text",
        "搜索片单链接": "a&&href",
        "搜索片单副标题": ".video-serial&&Text",
        "搜索片单链接加前缀": "https://www.duanju5.com",
        "搜索片单链接加后缀": "",
        "链接是否直接播放": "0",
        "直接播放链接加前缀": "",
        "直接播放链接加后缀": "#isVideo=true#",
        "直接播放直链视频请求头": "",
        "详情是否Jsoup写法": "0",
        "类型详情": "",
        "年代详情": "",
        "地区详情": "",
        "演员详情": "主演：</span>&&</div>",
        "简介详情": "introduction\">&&</p>",
        "线路列表数组规则": ".module-player-tab&&.module-tab-item",
        "线路标题": "Text",
        "播放列表数组规则": "body&&.module-player-list:has(.scroll-content)",
        "选集列表数组规则": ".scroll-content&&a",
        "选集标题链接是否Jsoup写法": "1",
        "选集标题": "a&&Text",
        "选集链接": "a&&href",
        "是否反转选集序列": "0",
        "选集链接加前缀": "https://www.duanju5.com",
        "选集链接加后缀": "",
        "分析MacPlayer": "0",
        "是否开启手动嗅探": "1",
        "手动嗅探视频链接关键词": ".mp4#.m3u8#.flv#video/tos",
        "手动嗅探视频链接过滤词": ".html#?url=http"
      }
    },
  
    {
      "key": "csp_XBPQ_vstv",
      "name": "💚短剧八↓",
      "type": 3,
      "api": "csp_XBPQ",
      "jar": "https://agit.ai/hu/hcr/raw/branch/master/lib/dj3.jar",
      "searchable": 1,
      "quickSearch": 1,
      "filterable": 1,
      "ext": {
        "分类url": "https://www.ytshengde.com/sanyisw/{cateId}-{area}-------{catePg}---{year}.html",
        "分类": "短剧$5#电视剧$2#电影$1#动漫$4#综艺$3"
      }
    },
 
    
    		{
			"key": "XBPQ_duanju5",
			"name": "💛短剧十二↓",
			"type": 3,
			"api": "csp_XBPQ",
			"searchable": 1,
			"quickSearch": 1,
			"filterable": 1,
			"ext": "分类url:https://m.duanju5.com/vodshow/{cateId}--{by}------{catePg}---{year}.html,分类:逆袭$nixi#甜宠$tianchong#虐恋$nuelian#穿越$chuanyue#重生$chongsheng",
			"jar": "https://agit.ai/hu/hcr/raw/branch/master/lib/xbpq.jar"
		},
  
   
{ "key": "横版影院", "name": "🧡短剧一↑", "type": 1, "api": "https://cj.lzcaiji.com/api.php/provide/vod/from/liangzi/?ac=list", "searchable": 1, "quickSearch": 1, "filterable": 1, "categories": [ "短剧" ], "jar": "http://tv.nxog.top/m/jar.php?id=ou;md5;550a6ae1d050d7f8b1bf3b715d1f5277" },
{
      "key": "csp_XBPQ_aoaotv",
      "name": "💙短剧十四",
      "type": 3,
      "api": "csp_XBPQ",
      "searchable": 1,
      "quickSearch": 1,
      "filterable": 1,
      "ext": {
        "分类url": "https://aoao.tv/vodshow/{cateId}--------{catePg}---.html",
        "分类": "短剧$20#电视剧$21#电影$22#动漫$23#综艺$24"
      }
    },
    
  {
            "key" : "v2-D",
            "name" :"💖分享短剧↓",
            "type" : 3,
            "api" : "https://notabug.org/ygfxz/6/raw/main/js/lib/drpy2.min.js",
            "ext" : "https://notabug.org/ygfxz/6/raw/main/js/js/mimiju.js"
        },
         {
      "key": "feisu",
      "name": "🛰️飞速┃有广→",
      "type": 1,
      "api": "https://www.feisuzyapi.com/api.php/provide/vod/?ac=list",
      "searchable": 1,
      "filterable": 0,
      "categories": [
        "国产动漫",
        "日本动漫",
        "欧美动漫",
        "海外动漫",
        "大陆综艺",
        "港台综艺",
        "日韩综艺",
        "欧美综艺",
        "动作片",
        "喜剧片",
        "爱情片",
        "科幻片",
        "恐怖片",
        "剧情片",
        "战争片",
        "国产剧",
        "香港剧",
        "欧美剧",
        "韩国剧",
        "台湾剧",
        "日本剧",
        "泰国剧",
        "纪录片",
        "动画片",
        "电影解说",
        "其他片",
        "其他剧",
        "体育赛事",
        "短剧"
      ]
    },
{
      "key": "奇虎资源",
      "name": "🐯┃奇虎┃整↓",
      "type": 1,
      "api": "https://caiji.qhzyapi.com/api.php/provide/vod/",
      "playUrl": "",
      "searchable": 1,
      "quickSearch": 1,
      "categories": [
        "动作片",
        "喜剧片",
        "爱情片",
        "科幻片",
        "恐怖片",
        "战争片",
        "剧情片",
        "伦理片",
        "纪录片",
        "国产剧",
        "香港剧",
        "韩国剧",
        "欧美剧",
        "日本剧",
        "台湾剧",
        "泰国剧",
        "海外剧",
        "国产动漫",
        "日本动漫",
        "欧美动漫",
        "大陆综艺",
        "港台综艺",
        "欧美综艺",
        "日韩综艺",
        "动画片",
        "体育",
        "短剧",
        "网络电影"
      ]
    },




    {
      "key": "py_cctv",
      "name": "🇨🇳央视大全",
      "type": 3,
      "api":"py_cctv",
      "searchable":1,
     "quickSearch":1,
     "filterable":1,
      "ext": "https://notabug.org/ygfxz/6/raw/main/PY/py_cctv.py"
    },
    	{
            "key":"py_cctv_集合",
            "name":"🇨🇳央视集合",
            "type":3,
            "style":{"type":"rect","ratio":1.485},
            "api":"py_cctv",
            "searchable":1,
            "quickSearch":1,
            "filterable":1,
            "ext":"https://framagit.org/Ygfxz/0/-/raw/main/cctvpk.json"
            }















    ],








































     "lives": [
    {
      "name": "ITV",
      "type": 0,
      "url": "https://mirror.ghproxy.com/raw.githubusercontent.com/ssili126/tv/main/itvlist.txt",
      "playerType": 1
    },
    {
      "name": "IPV6",
      "type": 0,
      "url": "https://live.fanmingming.com/tv/m3u/ipv6.m3u",
      "playerType": 1
    },
    {
      "name": "XIUTAN",
      "ua": "Mozilla/5.0 (Windows NT 10.0; Win64; x64) AppleWebKit/537.36 (KHTML, like Gecko) Chrome/120.0.0.0 Safari/537.36 Edg/120.0.0.0",
      "type": 0,
      "url": "https://xhdwc.tk/xiutan.m3u"
    },
        
        {
            "name": "live.feimao",
            "type": 0,
            "playerType": 1,
            "url": "http://我不是.肥猫.live/TV/tvzb.txt",
            "ua": "okhttp/3.12.13",
            "epg": "http://epg.112114.xyz/?ch={name}&date={date}",
            "logo": "https://epg.112114.xyz/logo/{name}.png"
        }
        
    ],
    "doh": [
        {
            "name": "Google",
            "url": "https://dns.google/dns-query",
            "ips": [
                "8.8.4.4",
                "8.8.8.8"
            ]
        },
        {
            "name": "Cloudflare",
            "url": "https://cloudflare-dns.com/dns-query",
            "ips": [
                "1.1.1.1",
                "1.0.0.1",
                "2606:4700:4700::1111",
                "2606:4700:4700::1001"
            ]
        },
        {
            "name": "AdGuard",
            "url": "https://dns.adguard.com/dns-query",
            "ips": [
                "94.140.14.140",
                "94.140.14.141"
            ]
        },
        {
            "name": "DNSWatch",
            "url": "https://resolver2.dns.watch/dns-query",
            "ips": [
                "84.200.69.80",
                "84.200.70.40"
            ]
        },
        {
            "name": "Quad9",
            "url": "https://dns.quad9.net/dns-quer",
            "ips": [
                "9.9.9.9",
                "149.112.112.112"
            ]
        }
    ],
    "rules": [
        {
            "name": "proxy",
            "hosts": [
                "raw.githubusercontent.com",
                "googlevideo.com",
                "cdn.v82u1l.com",
                "cdn.iz8qkg.com",
                "cdn.kin6c1.com",
                "c.biggggg.com",
                "c.olddddd.com",
                "haiwaikan.com",
                "www.histar.tv",
                "youtube.com",
                "uhibo.com",
                ".*boku.*",
                ".*nivod.*",
                "*.t4tv.hz.cz",
                ".*ulivetv.*"
            ]
        },
        {
            "name": "海外看",
            "hosts": [
                "haiwaikan"
            ],
            "regex": [
                "8.1748",
                "10.0099",
                "10.3333",
                "16.0599"
            ]
        },
        {
            "name": "暴風",
            "hosts": [
                "bfzy"
            ],
            "regex": [
                "#EXT-X-DISCONTINUITY\\r*\\n*#EXTINF:3,[\\s\\S]*?#EXT-X-DISCONTINUITY"
            ]
        },
        {
            "name": "星星",
            "hosts": [
                "aws.ulivetv.net"
            ],
            "regex": [
                "#EXT-X-DISCONTINUITY\\r*\\n*#EXTINF:8,[\\s\\S]*?#EXT-X-DISCONTINUITY"
            ]
        },
        {
            "name": "量子",
            "hosts": [
                "vip.lz",
                "hd.lz",
                "v.cdnlz"
            ],
            "regex": [
                "18.5333"
            ]
        },
        {
            "name": "非凡",
            "hosts": [
                "vip.ffzy",
                "hd.ffzy"
            ],
            "regex": [
                "25.0666",
                "25.08"
            ]
        },
        {
            "host": "www.djuu.com",
            "rule": [
                "mp4.djuu.com",
                "m4a"
            ]
        },
        {
            "host": "www.sharenice.net",
            "rule": [
                "huoshan.com",
                "/item/video/"
            ],
            "filter": []
        },
        {
            "host": "www.sharenice.net",
            "rule": [
                "sovv.qianpailive.com",
                "vid="
            ],
            "filter": []
        },
        {
            "host": "www.sharenice.net",
            "rule": [
                "douyin.com",
                "/play/"
            ]
        },
        {
            "host": "m.ysxs8.vip",
            "rule": [
                "ysting.ysxs8.vip:81",
                "xmcdn.com"
            ],
            "filter": []
        },
        {
            "host": "hdmoli.com",
            "rule": [
                ".m3u8"
            ]
        },
        {
            "host": "https://api.live.bilibili.com",
            "rule": [
                "bilivideo.com",
                "/index.m3u8"
            ],
            "filter": [
                "data.bilibili.com/log/web",
                "i0.hdslb.com/bfs/live/"
            ]
        },
        {
            "host": "www.agemys.cc",
            "rule": [
                "cdn-tos",
                "obj/tos-cn"
            ]
        },
        {
            "host": "www.fun4k.com",
            "rule": [
                "https://hd.ijycnd.com/play",
                "index.m3u8"
            ]
        },
        {
            "host": "zjmiao.com",
            "rule": [
                "play.videomiao.vip/API.php",
                "time=",
                "key=",
                "path="
            ]
        },
        {
            "name": "火山嗅探",
            "hosts": [
                "huoshan.com"
            ],
            "regex": [
                "item_id="
            ]
        },
        {
            "name": "抖音嗅探",
            "hosts": [
                "douyin.com"
            ],
            "regex": [
                "is_play_url="
            ]
        },
        {
            "name": "農民嗅探",
            "hosts": [
                "toutiaovod.com"
            ],
            "regex": [
                "video/tos/cn"
            ]
        },
        {
            "name": "夜市",
            "hosts": [
                "yeslivetv.com"
            ],
            "script": [
                "document.getElementsByClassName('vjs-big-play-button')[0].click()"
            ]
        },
        {
            "name": "毛驢",
            "hosts": [
                "www.maolvys.com"
            ],
            "script": [
                "document.getElementsByClassName('swal-button swal-button--confirm')[0].click()"
            ]
        },
        {
            "name": "磁力广告",
            "hosts": [
                "magnet"
            ],
            "regex": [
                "更多",
                "社 區",
                "x u u",
                "最 新",
                "直 播",
                "更 新",
                "社 区",
                "有 趣",
                "英皇体育",
                "全中文AV在线",
                "澳门皇冠赌场",
                "哥哥快来",
                "美女荷官",
                "裸聊",
                "新片首发",
                "UUE29"
            ]
        }
    ],
    "parses": [
     {"name": "并发","type": 3,"url":"Demo"},   
     {"name": "聚合","type": 3,"url": "Web"},
             
           {
      "name": "MeowTV",
      "type": 1,
      "url": "http://jx.meowtv.cn/?url="
    },
     {
            "name": "JSON解析",
            "type": 0,
            "url": "https://jx.jsonplayer.com/player/?url=",
            "ext": {
                "header": {
                    "user-agent": "Mozilla/5.0 (Linux; Android 13; V2049A Build/TP1A.220624.014; wv) AppleWebKit/537.36 (KHTML, like Gecko) Version/4.0 Chrome/116.0.0.0 Mobile Safari/537.36"
                }
            }
        },
        {
            "name": "777",
            "type": 0,
            "url": "https://jx.777jiexi.com/player/?url="
        },
          {
      "name": "虾米解析",
      "type": 0,
      "url": "https://jx.xmflv.com/?url="
    },
        {
            "name": "夜幕解析",
            "type": 0,
            "url": "https://www.yemu.xyz/?url=",
            "ext": {
                "flag": [
                    "qq",
                    "腾讯",
                    "qiyi",
                    "iqiyi",
                    "爱奇艺",
                    "奇艺",
                    "youku",
                    "优酷",
                    "mgtv",
                    "芒果",
                    "letv",
                    "乐视",
                    "pptv",
                    "PPTV",
                    "sohu",
                    "bilibili",
                    "哔哩哔哩",
                    "哔哩"
                ]
            }
        },
                {
            "name": "777解析2",
            "type": 1,
            "url": "https://jx.777jiexi.com/player/?next=https://www.woaimoon.com/vod/98780-9-2.html&url=",
            "ext": {
                "header": {
                    "User-Agent": "Mozilla/5.0"
                }
            }
        },
                
        {
            "name": "8090解析",
            "type": 0,
            "url": "https://www.8090g.cn/?url="
        },
        {
            "name": "阳途解析",
            "type": 0,
            "url": "https://jx.yangtu.top?url="
        },
        {
            "name": "线路12",
            "type": 0,
            "url": "https://jx.m3u8.tv/jiexi/?url="
        },
        {
            "name": "CK解析",
            "type": 0,
            "url": "https://www.ckplayer.vip/jiexi/?url="
        }
       
    ],
    "flags": [
        "youku",
        "qq",
        "iqiyi",
        "qiyi",
        "letv",
        "sohu",
        "tudou",
        "pptv",
        "mgtv",
        "wasu"
    ],
    "wallpaper": "http://饭太硬.top/深色壁纸/api.php",
    "disabled_wallpaper": "http://www.kf666888.cn/api/tvbox/img"
}